普癌新声 – Canregtools
…
[1] 142

Calculating age standardized rate

create_asr function could calculate age standardized rate, truncated rate, and cumulated rate based on provided standard population, it could also estimate the variance and 95% confidence interval of the rate.

# list all available standard population
ls_std_vars()

[1] "cn64"    "cn82"    "cn2000"  "wld85"   "wld2000"

# calculate asr using the create_asr() function
create_asr(fbsw, event = fbs, year, sex, cancer, std = c("cn2000", "wld85"))

# A tibble: 58 × 11
    year   sex cancer no_cases     cr asr_cn2000 asr_wld85 truncr_cn2000
   <int> <int>  <int>    <int>  <dbl>      <dbl>     <dbl>         <dbl>
 1  2021     1      0       18   5.50       4.56      4.06          6.91
 2  2021     1     60     1087 332.       275.      273.          430.  
 3  2021     1     61     1068 326.       270.      269.          424.  
 4  2021     1    101       18   5.50       4.65      4.91         10.4 
 5  2021     1    102        5   1.53       1.23      1.45          2.63
 6  2021     1    103       47  14.4       10.8      10.3          11.2 
 7  2021     1    104       65  19.9       15.6      16.1          21.9 
 8  2021     1    105       87  26.6       21.2      21.7          33.8 
 9  2021     1    106       84  25.7       20.9      21.7          38.0 
10  2021     1    107       21   6.41       5.19      5.57          9.84
# ℹ 48 more rows
# ℹ 3 more variables: truncr_wld85 <dbl>, cumur <dbl>, prop <dbl>

Calculating age standardized rate

The drop_total, drop_others, and add_labels functions can perform further processing on the ASR data, such as removing other cancers, removing total cancer, and adding labels.

create_asr(fbsw, event = fbs, year, sex, cancer) |> 
  drop_total() |> drop_others() |> 
  add_labels(lang = "en", label_type = "abbr")

# A tibble: 48 × 13
    year sex   cancer site             icd10 no_cases    cr asr_cn2000 asr_wld85
   <int> <fct>  <int> <fct>            <fct>    <int> <dbl>      <dbl>     <dbl>
 1  2021 Male     101 Oral Cavity & P… C00-…       18  5.50       4.65      4.91
 2  2021 Male     102 Nasopharynx      C11          5  1.53       1.23      1.45
 3  2021 Male     103 Esophagus        C15         47 14.4       10.8      10.3 
 4  2021 Male     104 Stomach          C16         65 19.9       15.6      16.1 
 5  2021 Male     105 Colorectum       C18-…       87 26.6       21.2      21.7 
 6  2021 Male     106 Liver            C22         84 25.7       20.9      21.7 
 7  2021 Male     107 Gallbladder      C23-…       21  6.41       5.19      5.57
 8  2021 Male     108 Pancreas         C25         28  8.55       6.81      7.14
 9  2021 Male     109 Larynx           C32         15  4.58       3.70      3.97
10  2021 Male     110 Lung             C33-…      230 70.2       57.6      59.3 
# ℹ 38 more rows
# ℹ 4 more variables: truncr_cn2000 <dbl>, truncr_wld85 <dbl>, cumur <dbl>,
#   prop <dbl>

Calculating quality indicators

create_quality function can calculate quality indicators including number of cancer cases, crude incidence, mortality, mortality:incidence ratio, proportion of morphology diagnosed cases, dco, UB%, etc based on ‘canreg’ or ‘fbswicd’ data.

# calculate quality indicators based on 'canreg' data
create_quality(data, year, sex, cancer) |> filter(!cancer == 0) |> 
  add_labels(lang = "en")

# A tibble: 56 × 16
    year sex   cancer site    icd10    rks   fbs    fbl   sws    swl    mi    mv
   <int> <fct>  <int> <fct>   <fct>  <int> <int>  <dbl> <int>  <dbl> <dbl> <dbl>
 1  2021 Male      60 All Ca… ALL   327403  1087 332.     560 171.    0.52  76.5
 2  2021 Male      61 All Ca… ALLb… 327403  1068 326.     554 169.    0.52  76.3
 3  2021 Male     101 Oral C… C00-… 327403    18   5.5     10   3.05  0.56  55.6
 4  2021 Male     102 Nasoph… C11   327403     5   1.53     4   1.22  0.8   40  
 5  2021 Male     103 Esopha… C15   327403    47  14.4     35  10.7   0.74  87.2
 6  2021 Male     104 Stomach C16   327403    65  19.8     55  16.8   0.85  73.8
 7  2021 Male     105 Conlon… C18-… 327403    87  26.6     55  16.8   0.63  77.0
 8  2021 Male     106 Liver   C22   327403    84  25.7     77  23.5   0.92  66.7
 9  2021 Male     107 Gallbl… C23-… 327403    21   6.41    16   4.89  0.76  85.7
10  2021 Male     108 Pancre… C25   327403    28   8.55    28   8.55  1     50  
# ℹ 46 more rows
# ℹ 4 more variables: dco <dbl>, ub <dbl>, sub <dbl>, m8000 <dbl>
…
# A tibble: 2 × 16
   year sex    cancer site      icd10    rks   fbs   fbl   sws   swl    mi    mv
  <int> <fct>   <dbl> <fct>     <fct>  <int> <int> <dbl> <int> <dbl> <dbl> <dbl>
1  2021 Male       60 All Canc… ALL   327403  1087  332.   560  171.  0.52  76.5
2  2021 Female     60 All Canc… ALL   355707  1462  411.   410  115.  0.28  84.1
# ℹ 4 more variables: dco <dbl>, ub <dbl>, sub <dbl>, m8000 <dbl>

create_quality(fbsw, cancer) |>
  filter(!cancer == 0) |> 
  add_labels(lang = "en")

# A tibble: 28 × 16
    year sex   cancer site    icd10    rks   fbs    fbl   sws    swl    mi    mv
   <dbl> <fct>  <int> <fct>   <fct>  <int> <int>  <dbl> <int>  <dbl> <dbl> <dbl>
 1  9000 Total     60 All Ca… ALL   683110  2549 373.     970 142     0.38  80.9
 2  9000 Total     61 All Ca… ALLb… 683110  2516 368.     956 140.    0.38  80.8
 3  9000 Total    101 Oral C… C00-… 683110    26   3.81    13   1.9   0.5   57.7
 4  9000 Total    102 Nasoph… C11   683110     7   1.02     5   0.73  0.71  57.1
 5  9000 Total    103 Esopha… C15   683110    66   9.66    46   6.73  0.7   86.4
 6  9000 Total    104 Stomach C16   683110   101  14.8     79  11.6   0.78  71.3
 7  9000 Total    105 Conlon… C18-… 683110   181  26.5    103  15.1   0.57  81.2
 8  9000 Total    106 Liver   C22   683110   125  18.3    100  14.6   0.8   68  
 9  9000 Total    107 Gallbl… C23-… 683110    44   6.44    31   4.54  0.7   86.4
10  9000 Total    108 Pancre… C25   683110    46   6.73    57   8.34  1.24  43.5
# ℹ 18 more rows
# ℹ 4 more variables: dco <dbl>, ub <dbl>, sub <dbl>, m8000 <dbl>

Calculating age specific rate

create_age_rate function could calculate age specific rate based on ‘canreg’ or ‘fbswicd’ data.

# calculate age specific rate from 'canreg' data.
create_age_rate(data, year, sex, cancer, format = "long") |> 
  filter(!cancer == 0) |> 
  arrange(year, sex, cancer, agegrp)

# A tibble: 1,064 × 6
    year   sex cancer agegrp   cases  rate
   <int> <int>  <int> <fct>    <int> <dbl>
 1  2021     1     60 0 岁         3  77.9
 2  2021     1     60 1-4 岁       3  20.8
 3  2021     1     60 10-14 岁     0   0  
 4  2021     1     60 15-19 岁     2  10.7
 5  2021     1     60 20-24 岁     5  18.0
 6  2021     1     60 25-29 岁    14  38.7
 7  2021     1     60 30-34 岁    39 133. 
 8  2021     1     60 35-39 岁    38 127. 
 9  2021     1     60 40-44 岁    60 196. 
10  2021     1     60 45-49 岁    64 240. 
# ℹ 1,054 more rows

Calculating age specific rate

# calculate age specific rate from 'fbswicd' data.
create_age_rate(fbsw, year, sex, cancer, format = "wide") |>
  filter(!cancer == 0) |> 
  add_labels(lang = "en")

# A tibble: 56 × 45
    year sex   cancer site       icd10    f0    f1    f2    f3    f4    f5    f6
   <int> <fct>  <int> <fct>      <fct> <int> <int> <int> <int> <int> <int> <int>
 1  2021 Male      60 All Cance… ALL    1087     3     3     0     2     5    14
 2  2021 Male      61 All Cance… ALLb…  1068     3     3     0     2     5    14
 3  2021 Male     101 Oral Cavi… C00-…    18     0     0     0     0     0     0
 4  2021 Male     102 Nasophary… C11       5     0     0     0     0     0     0
 5  2021 Male     103 Esophagus  C15      47     0     0     0     0     0     0
 6  2021 Male     104 Stomach    C16      65     0     0     0     0     0     0
 7  2021 Male     105 Conlon, R… C18-…    87     0     0     0     0     0     1
 8  2021 Male     106 Liver      C22      84     0     1     0     0     0     0
 9  2021 Male     107 Gallbladd… C23-…    21     0     0     0     0     0     0
10  2021 Male     108 Pancreas   C25      28     0     0     0     0     0     0
# ℹ 46 more rows
# ℹ 33 more variables: f7 <int>, f8 <int>, f9 <int>, f10 <int>, f11 <int>,
#   f12 <int>, f13 <int>, f14 <int>, f15 <int>, f16 <int>, f17 <int>,
#   f18 <int>, f19 <int>, r0 <dbl>, r1 <dbl>, r2 <dbl>, r3 <dbl>, r4 <dbl>,
#   r5 <dbl>, r6 <dbl>, r7 <dbl>, r8 <dbl>, r9 <dbl>, r10 <dbl>, r11 <dbl>,
#   r12 <dbl>, r13 <dbl>, r14 <dbl>, r15 <dbl>, r16 <dbl>, r17 <dbl>,
#   r18 <dbl>, r19 <dbl>
…
